^C:\USERS\משתמש\HOMEWORK10_STL_OFIROKNIN\STL_HW\EX1\ITEM.CPP
/c /ZI /JMC /nologo /W3 /WX- /diagnostics:column /sdl /Od /Oy- /D WIN32 /D _DEBUG /D _CONSOLE /D _UNICODE /D UNICODE /Gm- /EHsc /RTC1 /MDd /GS /fp:precise /permissive- /Zc:wchar_t /Zc:forScope /Zc:inline /Fo"DEBUG\\" /Fd"DEBUG\VC142.PDB" /Gd /TP /analyze- /FC C:\USERS\משתמש\HOMEWORK10_STL_OFIROKNIN\STL_HW\EX1\ITEM.CPP
^C:\USERS\משתמש\HOMEWORK10_STL_OFIROKNIN\STL_HW\EX1\CUSTOMER.CPP
/c /ZI /JMC /nologo /W3 /WX- /diagnostics:column /sdl /Od /Oy- /D WIN32 /D _DEBUG /D _CONSOLE /D _UNICODE /D UNICODE /Gm- /EHsc /RTC1 /MDd /GS /fp:precise /permissive- /Zc:wchar_t /Zc:forScope /Zc:inline /Fo"DEBUG\\" /Fd"DEBUG\VC142.PDB" /Gd /TP /analyze- /FC C:\USERS\משתמש\HOMEWORK10_STL_OFIROKNIN\STL_HW\EX1\CUSTOMER.CPP
^C:\USERS\משתמש\HOMEWORK10_STL_OFIROKNIN\STL_HW\EX1\MAINFUNCTIONS.CPP
/c /ZI /JMC /nologo /W3 /WX- /diagnostics:column /sdl /Od /Oy- /D WIN32 /D _DEBUG /D _CONSOLE /D _UNICODE /D UNICODE /Gm- /EHsc /RTC1 /MDd /GS /fp:precise /permissive- /Zc:wchar_t /Zc:forScope /Zc:inline /Fo"DEBUG\\" /Fd"DEBUG\VC142.PDB" /Gd /TP /analyze- /FC C:\USERS\משתמש\HOMEWORK10_STL_OFIROKNIN\STL_HW\EX1\MAINFUNCTIONS.CPP
^C:\USERS\משתמש\HOMEWORK10_STL_OFIROKNIN\STL_HW\EX1\MAIN.CPP
/c /ZI /JMC /nologo /W3 /WX- /diagnostics:column /sdl /Od /Oy- /D WIN32 /D _DEBUG /D _CONSOLE /D _UNICODE /D UNICODE /Gm- /EHsc /RTC1 /MDd /GS /fp:precise /permissive- /Zc:wchar_t /Zc:forScope /Zc:inline /Fo"DEBUG\\" /Fd"DEBUG\VC142.PDB" /Gd /TP /analyze- /FC C:\USERS\משתמש\HOMEWORK10_STL_OFIROKNIN\STL_HW\EX1\MAIN.CPP
